Linear Regression -
…
dat <- read_csv("summary.australia.soybean.csv")

Rows: 58 Columns: 7
── Column specification ────────────────────────────────────────────────────────
Delimiter: ","
chr (1): gen
dbl (6): yield, height, lodging, size, protein, oil

ℹ Use `spec()` to retrieve the full column specification for this data.
ℹ Specify the column types or set `show_col_types = FALSE` to quiet this message.

dat  

# A tibble: 58 × 7
   gen   yield height lodging  size protein   oil
   <chr> <dbl>  <dbl>   <dbl> <dbl>   <dbl> <dbl>
 1 G01    1.91  0.968    2.78  8.01    38.9  18.9
 2 G02    2.02  0.893    2.56  9.2     40.1  19.8
 3 G03    2.11  0.939    2.22 10.8     38.7  20.7
 4 G04    2.44  0.942    1.91 11.1     38.3  21.1
 5 G05    2.25  0.906    2.09 11.6     37.4  21.7
 6 G06    2.12  0.872    2.25 11.3     37.7  20.8
 7 G07    2.41  0.909    1.94 11.2     37.4  21.3
 8 G08    1.78  0.848    2.16 10.3     37.9  19.8
 9 G09    2.24  0.859    1.97 10.5     37.9  20.4
10 G10    2.39  0.826    2.06 11.2     38.3  20.0
# ℹ 48 more rows
…
